<svg width="10" height="6" viewBox="0 0 10 6" fill="none" xmlns="http://www.w3.org/2000/svg">
<path d="M1.17021 0L5.16039 3.8324L8.91338 0.227807L10 1.27146L5.0768 6L0 1.12394L1.17021 0V0Z" fill="white"/>
</svg>
